%YAML 1.1
%TAG !u! tag:unity3d.com,2011:
--- !u!114 &11400000
MonoBehaviour:
  m_ObjectHideFlags: 0
  m_CorrespondingSourceObject: {fileID: 0}
  m_PrefabInstance: {fileID: 0}
  m_PrefabAsset: {fileID: 0}
  m_GameObject: {fileID: 0}
  m_Enabled: 1
  m_EditorHideFlags: 0
  m_Script: {fileID: 42938266, guid: e743331561ef77147ae48cda9bcb8209, type: 3}
  m_Name: PlayMakerGlobals
  m_EditorClassIdentifier: 
  variables:
    floatVariables: []
    intVariables: []
    boolVariables: []
    stringVariables: []
    vector2Variables: []
    vector3Variables: []
    colorVariables: []
    rectVariables: []
    quaternionVariables: []
    gameObjectVariables: []
    objectVariables: []
    materialVariables: []
    textureVariables: []
    arrayVariables: []
    enumVariables: []
    categories:
    - 
    variableCategoryIDs: 
  events:
  - CamChange
  - startFishing
  - DoneFishing
  - buyBoat1
  - buyBoat2
  - buyBoat3
  - S2FishOn
  - LostS2Fish
  - LostFish
  - Stage2FishOn
  - Stage1FishOn
  - Stage3FishOn
  - Stage4FishOn
  - Stage5FishOn
  - donateFish
