%YAML 1.1
%TAG !u! tag:unity3d.com,2011:
--- !u!1045 &1
EditorBuildSettings:
  m_ObjectHideFlags: 0
  serializedVersion: 2
  m_Scenes:
  - enabled: 0
    path: 
    guid: 00000000000000000000000000000000
  - enabled: 1
    path: Assets/LochNess/NessyPrototyping/Scenes/prototyping.unity
    guid: 87a7b91d5bda0aa48a5de8f753506b1b
  m_configObjects: {}
